{
  "info": {
    "_postman_id": "770f5065-2e7a-4765-90d1-d6e47d03b429",
    "name": "hw5.2",
    "schema": "https://schema.getpostman.com/json/collection/v2.1.0/collection.json"
  },
  "item": [
    {
      "name": "Login",
      "event": [
        {
          "listen": "test",
          "script": {
            "id": "6ee1c2b5-16bb-4b65-928b-6e4235270d2e",
            "exec": [
              "var responseJSON = JSON.parse(responseBody) ",
              "",
              "pm.collectionVariables.set(\"token\", responseJSON.data.token)",
              "pm.collectionVariables.set(\"user_id\", responseJSON.data.userId)",
              "",
              "console.info(\"request\")",
              "",
              "pm.test(\"response is ok\", function () {",
              "    pm.response.to.have.status(200);",
              "});",
              "",
              "console.info(responseJSON)"
            ],
            "type": "text/javascript"
          }
        }
      ],
      "request": {
        "method": "POST",
        "header": [],
        "url": {
          "raw": "http://localhost:8080/api/v1/login",
          "protocol": "http",
          "host": [
            "localhost"
          ],
          "port": "8080",
          "path": [
            "api",
            "v1",
            "login"
          ]
        }
      },
      "response": []
    },
    {
      "name": "Get profile",
      "event": [
        {
          "listen": "test",
          "script": {
            "id": "3ca99256-0609-4157-9027-0377dc6d8d75",
            "exec": [
              "var responseJSON = JSON.parse(responseBody) ",
              "",
              "console.info(\"request\")",
              "",
              "pm.test(\"response is ok\", function () {",
              "    pm.response.to.have.status(200);",
              "});",
              "",
              "console.info(responseJSON)"
            ],
            "type": "text/javascript"
          }
        }
      ],
      "request": {
        "auth": {
          "type": "noauth"
        },
        "method": "GET",
        "header": [
          {
            "key": "Authorization",
            "value": "{{token}}",
            "type": "text"
          }
        ],
        "url": {
          "raw": "http://localhost:8080/api/v1/profile/{{user_id}}",
          "protocol": "http",
          "host": [
            "localhost"
          ],
          "port": "8080",
          "path": [
            "api",
            "v1",
            "profile",
            "{{user_id}}"
          ]
        }
      },
      "response": []
    },
    {
      "name": "Get profile 400",
      "event": [
        {
          "listen": "test",
          "script": {
            "id": "9edba863-1897-427f-9859-b792b583fe22",
            "exec": [
              "var responseJSON = JSON.parse(responseBody) ",
              "",
              "pm.test(\"response is ok\", function () {",
              "    pm.response.to.have.status(400);",
              "});"
            ],
            "type": "text/javascript"
          }
        }
      ],
      "request": {
        "auth": {
          "type": "noauth"
        },
        "method": "GET",
        "header": [],
        "url": {
          "raw": "http://localhost:8080/api/v1/profile/{{user_id}}",
          "protocol": "http",
          "host": [
            "localhost"
          ],
          "port": "8080",
          "path": [
            "api",
            "v1",
            "profile",
            "{{user_id}}"
          ]
        }
      },
      "response": []
    }
  ],
  "event": [
    {
      "listen": "prerequest",
      "script": {
        "id": "f7f4566e-d4cc-4107-b4b9-1f6ab19fe869",
        "type": "text/javascript",
        "exec": [
          ""
        ]
      }
    },
    {
      "listen": "test",
      "script": {
        "id": "d3440e3e-408d-4c13-a323-9cec5d89f5e6",
        "type": "text/javascript",
        "exec": [
          ""
        ]
      }
    }
  ],
  "variable": [
    {
      "id": "68ad4986-168a-48be-a566-e6213dd208d9",
      "key": "host",
      "value": ""
    },
    {
      "id": "1d962b0f-e19f-4fe4-a087-652f966e6e09",
      "key": "port",
      "value": ""
    },
    {
      "id": "9cd4a17f-fab1-4d75-a551-5f7618266d45",
      "key": "token",
      "value": ""
    },
    {
      "id": "c877716b-31d7-4ec9-8f03-ae91cdd48a03",
      "key": "user_id",
      "value": ""
    }
  ],
  "protocolProfileBehavior": {}
}